<?xml version="1.0" encoding="iso-8859-1"?>
<!-- Generator: Adobe Illustrator 19.0.0, SVG Export Plug-In . SVG Version: 6.00 Build 0)  -->
<svg version="1.1" id="Capa_1" xmlns="http://www.w3.org/2000/svg" xmlns:xlink="http://www.w3.org/1999/xlink" x="0px" y="0px"
	 viewBox="0 0 512 512" style="enable-background:new 0 0 512 512;" xml:space="preserve">
<path style="fill:#87CED9;" d="M366.932,503.467h-256c-28.279,0-51.2-22.921-51.2-51.2l0,0V384h-51.2
	c0,0,53.291-148.591,57.173-162.133c19.021-65.724,79.206-110.95,147.627-110.933l0,0c84.83,0,153.6,68.77,153.6,153.6V503.467z"/>
<path style="fill:#7DC6D1;" d="M123.877,503.467h243.055V264.533c0.034-36.25-12.817-71.33-36.258-98.987
	C273.065,376.457,183.158,466.142,123.877,503.467z"/>
<circle style="fill:#61ACC9;" cx="119.465" cy="290.133" r="25.6"/>
<path style="fill:#E8594A;" d="M503.465,213.333v-68.267h-47.411c-2.782-10.095-6.793-19.797-11.947-28.911l33.502-33.502
	l-48.265-48.273l-33.502,33.502c-9.114-5.154-18.825-9.165-28.911-11.938V8.533h-68.267v47.411
	c-5.82,1.604-11.529,3.618-17.067,6.025c-4.053,1.758-8.004,3.738-11.844,5.914l-33.502-33.502l-48.273,48.273l33.502,33.502
	c-2.176,3.84-4.156,7.791-5.914,11.844c-2.406,5.538-4.42,11.247-6.025,17.067h-47.411v68.267h47.411
	c2.782,10.095,6.793,19.797,11.947,28.911l-33.502,33.502l48.273,48.273l33.502-33.502c3.84,2.176,7.791,4.156,11.836,5.914
	c5.538,2.406,11.247,4.42,17.067,6.025v47.411h68.267v-47.411c10.095-2.782,19.797-6.793,28.911-11.947l33.502,33.502l48.273-48.273
	l-33.502-33.502c5.154-9.105,9.165-18.816,11.938-28.902L503.465,213.333L503.465,213.333z M332.799,213.333
	c-18.85,0-34.133-15.283-34.133-34.133s15.283-34.133,34.133-34.133s34.133,15.283,34.133,34.133S351.649,213.333,332.799,213.333z"
	/>
<path style="fill:#DE5547;" d="M444.116,116.156l33.502-33.502l-24.141-24.132l-96.546,96.546
	c13.559,13.099,13.935,34.705,0.836,48.265c-13.099,13.559-34.705,13.935-48.265,0.836c-0.282-0.273-0.563-0.555-0.836-0.836
	l-96.546,96.546l24.132,24.141l33.502-33.502c3.84,2.176,7.791,4.156,11.844,5.914c5.538,2.406,11.247,4.42,17.067,6.025v47.411
	h68.267v-47.411c10.095-2.782,19.797-6.793,28.911-11.947l33.502,33.502l48.273-48.273l-33.502-33.502
	c5.154-9.105,9.165-18.816,11.938-28.902h47.411v-68.267h-47.411C453.272,134.972,449.27,125.269,444.116,116.156z"/>
<path style="fill:#D65245;" d="M332.799,273.067c-51.84,0-93.867-42.027-93.867-93.867s42.027-93.867,93.867-93.867
	s93.867,42.027,93.867,93.867C426.606,231.014,384.613,273.007,332.799,273.067z M332.799,102.4c-42.419,0-76.8,34.381-76.8,76.8
	s34.381,76.8,76.8,76.8s76.8-34.381,76.8-76.8C409.547,136.806,375.192,102.451,332.799,102.4z"/>
<path d="M503.465,136.533h-41.079c-2.108-6.46-4.71-12.757-7.765-18.825l29.013-29.013c3.337-3.328,3.337-8.73,0.009-12.066
	l-0.009-0.009l-48.256-48.273c-3.388-3.2-8.687-3.2-12.075,0L394.29,57.361c-6.076-3.055-12.365-5.641-18.825-7.748V8.533
	c0-4.71-3.823-8.533-8.533-8.533h-68.267c-4.71,0-8.533,3.823-8.533,8.533v41.079c-4.07,1.331-8.064,2.85-11.947,4.531
	c-2.321,1.015-4.625,2.091-6.886,3.234l-29.013-29.013c-3.328-3.337-8.73-3.337-12.066-0.009l-0.009,0.009l-48.273,48.273
	c-3.337,3.328-3.337,8.73-0.009,12.066l0.009,0.009l29.013,29.013c-1.143,2.261-2.219,4.565-3.234,6.886
	c-1.707,3.874-3.2,7.868-4.54,11.947h-41.045c-4.71,0-8.533,3.823-8.533,8.533v68.267c0,4.71,3.823,8.533,8.533,8.533h41.079
	c2.108,6.46,4.71,12.757,7.765,18.825l-29.013,29.013c-3.337,3.328-3.337,8.73-0.009,12.066l0.009,0.009l48.273,48.273
	c3.388,3.2,8.687,3.2,12.075,0l29.013-29.013c2.261,1.143,4.565,2.219,6.886,3.234c3.874,1.707,7.868,3.2,11.947,4.54v41.028
	c0,4.71,3.823,8.533,8.533,8.533h68.267c4.71,0,8.533-3.823,8.533-8.533v-41.079c6.46-2.108,12.757-4.71,18.825-7.765l29.013,29.013
	c3.328,3.337,8.73,3.337,12.066,0.009l0.009-0.009l48.273-48.273c3.337-3.328,3.337-8.73,0.009-12.066l-0.009-0.009l-29.013-29.013
	c3.046-6.067,5.623-12.356,7.723-18.807h41.079c4.71,0,8.533-3.823,8.533-8.533v-68.267
	C511.999,140.356,508.176,136.533,503.465,136.533z M494.932,204.8h-38.878c-3.84,0-7.202,2.56-8.226,6.255
	c-2.577,9.412-6.306,18.475-11.093,26.982c-1.894,3.337-1.323,7.526,1.391,10.24l27.469,27.46l-36.215,36.215l-27.46-27.469
	c-2.714-2.714-6.903-3.285-10.24-1.391c-8.508,4.787-17.57,8.516-26.982,11.093c-3.695,1.024-6.255,4.386-6.255,8.226v38.921
	h-51.243v-38.878c0-3.84-2.56-7.202-6.263-8.226c-5.436-1.502-10.761-3.379-15.932-5.623c-3.772-1.647-7.458-3.482-11.042-5.513
	c-3.337-1.894-7.526-1.323-10.24,1.391l-27.46,27.469l-36.215-36.215l27.469-27.418c2.714-2.714,3.285-6.903,1.391-10.24
	c-4.787-8.508-8.516-17.57-11.093-26.982c-1.015-3.729-4.403-6.315-8.269-6.298h-38.878v-51.2h38.878c3.84,0,7.202-2.56,8.226-6.263
	c1.502-5.436,3.379-10.761,5.623-15.932c1.647-3.772,3.482-7.458,5.513-11.042c1.894-3.337,1.323-7.526-1.391-10.24l-27.469-27.46
	l36.215-36.215l27.46,27.469c2.714,2.714,6.903,3.285,10.24,1.391c3.584-2.031,7.27-3.866,11.042-5.513
	c5.171-2.244,10.496-4.122,15.932-5.623c3.703-1.024,6.263-4.386,6.263-8.226V17.067h51.2v38.878c0,3.84,2.56,7.202,6.255,8.226
	c9.412,2.577,18.475,6.306,26.982,11.093c3.337,1.894,7.526,1.323,10.24-1.391l27.46-27.469l36.215,36.215l-27.469,27.46
	c-2.714,2.714-3.285,6.903-1.391,10.24c4.787,8.508,8.516,17.57,11.093,26.982c1.024,3.695,4.386,6.255,8.226,6.255h38.921V204.8z"
	/>
<path d="M332.799,136.533c-23.561,0-42.667,19.106-42.667,42.667s19.106,42.667,42.667,42.667s42.667-19.106,42.667-42.667
	C375.44,155.648,356.351,136.559,332.799,136.533z M332.799,204.8c-14.14,0-25.6-11.46-25.6-25.6c0-14.14,11.46-25.6,25.6-25.6
	s25.6,11.46,25.6,25.6C358.399,193.34,346.938,204.8,332.799,204.8z"/>
<path d="M332.799,85.333c-51.84,0-93.867,42.027-93.867,93.867s42.027,93.867,93.867,93.867s93.867-42.027,93.867-93.867
	C426.606,127.386,384.613,85.393,332.799,85.333z M332.799,256c-42.419,0-76.8-34.381-76.8-76.8s34.381-76.8,76.8-76.8
	s76.8,34.381,76.8,76.8C409.547,221.594,375.192,255.949,332.799,256z"/>
<path d="M8.532,392.533h42.667v59.733c0.034,32.973,26.761,59.699,59.733,59.733h256c4.71,0,8.533-3.823,8.533-8.533v-128h-17.067
	v119.467h-92.365c2.586-3.422,4.642-7.211,6.093-11.247l34.577-96.819l-16.077-5.734l-34.577,96.811
	c-3.652,10.18-13.295,16.973-24.107,16.99H110.932c-23.552-0.026-42.641-19.115-42.667-42.667v-25.6h34.133V409.6H68.265V384
	c0-4.71-3.823-8.533-8.533-8.533H20.649C33.296,340.156,70.595,235.793,73.94,224.23c10.368-36.045,34.338-66.645,66.859-85.333
	l-8.533-14.78c-36.343,20.89-63.147,55.1-74.726,95.386C54.51,230.007,18.9,329.813,0.502,381.124
	c-1.587,4.437,0.725,9.318,5.163,10.914C6.578,392.363,7.551,392.533,8.532,392.533z"/>
<path d="M85.332,290.133c0,18.85,15.283,34.133,34.133,34.133s34.133-15.283,34.133-34.133c0-18.85-15.283-34.133-34.133-34.133
	S85.332,271.283,85.332,290.133z M136.532,290.133c0,9.429-7.637,17.067-17.067,17.067s-17.067-7.637-17.067-17.067
	c0-9.429,7.637-17.067,17.067-17.067S136.532,280.704,136.532,290.133z"/>
<g>
</g>
<g>
</g>
<g>
</g>
<g>
</g>
<g>
</g>
<g>
</g>
<g>
</g>
<g>
</g>
<g>
</g>
<g>
</g>
<g>
</g>
<g>
</g>
<g>
</g>
<g>
</g>
<g>
</g>
</svg>
